\relax 
\providecommand\hyper@newdestlabel[2]{}
\providecommand\HyperFirstAtBeginDocument{\AtBeginDocument}
\HyperFirstAtBeginDocument{\ifx\hyper@anchor\@undefined
\global\let\oldcontentsline\contentsline
\gdef\contentsline#1#2#3#4{\oldcontentsline{#1}{#2}{#3}}
\global\let\oldnewlabel\newlabel
\gdef\newlabel#1#2{\newlabelxx{#1}#2}
\gdef\newlabelxx#1#2#3#4#5#6{\oldnewlabel{#1}{{#2}{#3}}}
\AtEndDocument{\ifx\hyper@anchor\@undefined
\let\contentsline\oldcontentsline
\let\newlabel\oldnewlabel
\fi}
\fi}
\global\let\hyper@last\relax 
\gdef\HyperFirstAtBeginDocument#1{#1}
\providecommand\HyField@AuxAddToFields[1]{}
\providecommand\HyField@AuxAddToCoFields[2]{}
\citation{gp15}
\citation{gp15}
\citation{sb15}
\citation{mb12}
\citation{rk04,sb15}
\citation{ssh16}
\citation{ssh16}
\citation{ssh16}
\citation{gp15}
\citation{ssh16}
\citation{ssh16}
\providecommand \oddpage@label [2]{}
\@writefile{toc}{\contentsline {section}{\numberline {1}Introduction}{1}{section.1}}
\citation{ssh16}
\citation{ssh16}
\citation{ssh16}
\@writefile{toc}{\contentsline {section}{\numberline {2}Past Work Comparison/Extension}{2}{section.2}}
\@writefile{toc}{\contentsline {subsection}{\numberline {2.1}Presence of Dynamo}{2}{subsection.2.1}}
\citation{abl96,Pessah06}
\@writefile{lof}{\contentsline {figure}{\numberline {1}{\ignorespaces Averaged from $t=50$ orbits.\relax }}{3}{figure.1}}
\newlabel{fig:MEtot}{{1}{3}{Averaged from $t=50$ orbits.\relax }{figure.1}{}}
\newlabel{fig:MEtot@cref}{{[figure][1][]1}{3}}
\@writefile{lof}{\contentsline {figure}{\numberline {2}{\ignorespaces Averaged from $t=50$ orbits.\relax }}{3}{figure.2}}
\newlabel{fig:MEmean}{{2}{3}{Averaged from $t=50$ orbits.\relax }{figure.2}{}}
\newlabel{fig:MEmean@cref}{{[figure][2][]2}{3}}
\@writefile{lot}{\contentsline {table}{\numberline {1}{\ignorespaces Table of values for simulation runs. \relax }}{4}{table.caption.1}}
\providecommand*\caption@xref[2]{\@setref\relax\@undefined{#1}}
\newlabel{tab:sshvals}{{1}{4}{Table of values for simulation runs. \relax }{table.caption.1}{}}
\newlabel{tab:sshvals@cref}{{[table][1][]1}{4}}
\@writefile{lof}{\contentsline {figure}{\numberline {3}{\ignorespaces Averaged from $t=50$ orbits.\relax }}{4}{figure.3}}
\newlabel{fig:MEmtr}{{3}{4}{Averaged from $t=50$ orbits.\relax }{figure.3}{}}
\newlabel{fig:MEmtr@cref}{{[figure][3][]3}{4}}
\@writefile{lof}{\contentsline {figure}{\numberline {4}{\ignorespaces Averaged from $t=50$ orbits.\relax }}{4}{figure.4}}
\newlabel{fig:MEymtr}{{4}{4}{Averaged from $t=50$ orbits.\relax }{figure.4}{}}
\newlabel{fig:MEymtr@cref}{{[figure][4][]4}{4}}
\citation{ssh16}
\citation{gp15}
\citation{nb15}
\@writefile{lof}{\contentsline {figure}{\numberline {5}{\ignorespaces Averaged from $t=50$ orbits.\relax }}{5}{figure.5}}
\newlabel{fig:maturb}{{5}{5}{Averaged from $t=50$ orbits.\relax }{figure.5}{}}
\newlabel{fig:maturb@cref}{{[figure][5][]5}{5}}
\@writefile{lof}{\contentsline {figure}{\numberline {6}{\ignorespaces Averaged from $t=50$ orbits.\relax }}{5}{figure.6}}
\newlabel{fig:mamean}{{6}{5}{Averaged from $t=50$ orbits.\relax }{figure.6}{}}
\newlabel{fig:mamean@cref}{{[figure][6][]6}{5}}
\@writefile{lof}{\contentsline {figure}{\numberline {7}{\ignorespaces Averaged from $t=50$ orbits.\relax }}{5}{figure.7}}
\newlabel{fig:mxrx}{{7}{5}{Averaged from $t=50$ orbits.\relax }{figure.7}{}}
\newlabel{fig:mxrx@cref}{{[figure][7][]7}{5}}
\@writefile{lof}{\contentsline {figure}{\numberline {8}{\ignorespaces Averaged from $t=50$ orbits.\relax }}{5}{figure.8}}
\newlabel{fig:tx}{{8}{5}{Averaged from $t=50$ orbits.\relax }{figure.8}{}}
\newlabel{fig:tx@cref}{{[figure][8][]8}{5}}
\@writefile{toc}{\contentsline {subsection}{\numberline {2.2}Scaling Relations}{5}{subsection.2.2}}
\@writefile{toc}{\contentsline {subsection}{\numberline {2.3}Butterfly Diagram}{5}{subsection.2.3}}
\citation{sb15}
\@writefile{toc}{\contentsline {section}{\numberline {3}Next Steps/Possible Directions}{6}{section.3}}
\@writefile{toc}{\contentsline {section}{\numberline {4}Specific Questions}{6}{section.4}}
\@writefile{lof}{\contentsline {figure}{\numberline {9}{\ignorespaces Difference in average azimuthal magnetic field for small (top) and tall (bottom) boxes. The black dotted box indicates the actual simulation domain.\relax }}{7}{figure.9}}
\newlabel{fig:bzcomp}{{9}{7}{Difference in average azimuthal magnetic field for small (top) and tall (bottom) boxes. The black dotted box indicates the actual simulation domain.\relax }{figure.9}{}}
\newlabel{fig:bzcomp@cref}{{[figure][9][]9}{7}}
\@writefile{lof}{\contentsline {figure}{\numberline {10}{\ignorespaces Large-scale structure in averaged azimuthal magnetic field for shear parameters of $q=0.6$, 0.9, 1.2, and 1.5. Note that the limits of the colorbars change for each panel.\relax }}{8}{figure.10}}
\newlabel{fig:z4q691215}{{10}{8}{Large-scale structure in averaged azimuthal magnetic field for shear parameters of $q=0.6$, 0.9, 1.2, and 1.5. Note that the limits of the colorbars change for each panel.\relax }{figure.10}{}}
\newlabel{fig:z4q691215@cref}{{[figure][10][]10}{8}}
\bibstyle{unsrtnat}
\bibdata{../bibTeX/sheardynamo}
\bibcite{gp15}{{1}{2015}{{Gressel and Pessah}}{{}}}
\bibcite{sb15}{{2}{2015}{{Squire and Bhattacharjee}}{{}}}
\bibcite{mb12}{{3}{2012}{{Mitra and Brandenburg}}{{}}}
\bibcite{rk04}{{4}{2004}{{Rogachevskii and Kleeorin}}{{}}}
\bibcite{ssh16}{{5}{2016}{{Shi et~al.}}{{Shi, Stone, and Huang}}}
\bibcite{abl96}{{6}{1996}{{Abramowicz et~al.}}{{Abramowicz, Brandenburg, and Lasota}}}
\bibcite{Pessah06}{{7}{2006}{{Pessah et~al.}}{{Pessah, Chan, and Psaltis}}}
\bibcite{nb15}{{8}{2015}{{Nauman and Blackman}}{{}}}
